{
  "savedMovies": [
    {
      "id": 1,
      "Title": "Paranormal Activity",
      "Year": "2007",
      "imdbID": "tt1179904",
      "Type": "movie",
      "Poster": "https://m.media-amazon.com/images/M/MV5BMjY1NjcxODQ4MV5BMl5BanBnXkFtZTcwMzUxNjM4Mg@@._V1_SX300.jpg"
    },
    {
      "Poster": "https://m.media-amazon.com/images/M/MV5BZmU0M2Y1OGUtZjIxNi00ZjBkLTg1MjgtOWIyNThiZWIwYjRiXkEyXkFqcGdeQXVyMTQxNzMzNDI@._V1_SX300.jpg",
      "Title": "Back to the Future",
      "Type": "movie",
      "Year": "1985",
      "imdbID": "tt0088763",
      "id": 2
    },
    {
      "Title": "V for Vendetta",
      "Year": "2005",
      "imdbID": "tt0434409",
      "Type": "movie",
      "Poster": "https://m.media-amazon.com/images/M/MV5BOTI5ODc3NzExNV5BMl5BanBnXkFtZTcwNzYxNzQzMw@@._V1_SX300.jpg",
      "id": 7
    },
    {
      "Poster": "https://m.media-amazon.com/images/M/MV5BZTA2NTBkYWUtMzM4Zi00YzhlLTk4NWItY2U1ODczNDMyNDAzXkEyXkFqcGdeQXVyNDg4NjY5OTQ@._V1_SX300.jpg",
      "Title": "Lucifer",
      "Type": "series",
      "Year": "2015–",
      "imdbID": "tt4052886",
      "id": 8
    }
  ],
  "seenMovies": [
    {
      "Poster": "https://m.media-amazon.com/images/M/MV5BMTUzNTc3MTU3M15BMl5BanBnXkFtZTcwMzIxNTc3NA@@._V1_SX300.jpg",
      "Title": "Cars 2",
      "Type": "movie",
      "Year": "2011",
      "imdbID": "tt1216475",
      "id": 1
    },
    {
      "Title": "Jumanji: Welcome to the Jungle",
      "Year": "2017",
      "imdbID": "tt2283362",
      "Type": "movie",
      "Poster": "https://m.media-amazon.com/images/M/MV5BODQ0NDhjYWItYTMxZi00NTk2LWIzNDEtOWZiYWYxZjc2MTgxXkEyXkFqcGdeQXVyMTQxNzMzNDI@._V1_SX300.jpg",
      "id": 2
    },
    {
      "Title": "Jumanji",
      "Year": "1995",
      "imdbID": "tt0113497",
      "Type": "movie",
      "Poster": "https://m.media-amazon.com/images/M/MV5BZTk2ZmUwYmEtNTcwZS00YmMyLWFkYjMtNTRmZDA3YWExMjc2XkEyXkFqcGdeQXVyMTQxNzMzNDI@._V1_SX300.jpg",
      "id": 3
    },
    {
      "Title": "Jumanji: The Next Level",
      "Year": "2019",
      "imdbID": "tt7975244",
      "Type": "movie",
      "Poster": "https://m.media-amazon.com/images/M/MV5BOTVjMmFiMDUtOWQ4My00YzhmLWE3MzEtODM1NDFjMWEwZTRkXkEyXkFqcGdeQXVyMTkxNjUyNQ@@._V1_SX300.jpg",
      "id": 4
    }
  ]
}