{
  "savedMovies": [
    {
      "Title": "Groundhog Day",
      "Year": "1993",
      "imdbID": "tt0107048",
      "Type": "movie",
      "Poster": "https://m.media-amazon.com/images/M/MV5BZWIxNzM5YzQtY2FmMS00Yjc3LWI1ZjUtNGVjMjMzZTIxZTIxXkEyXkFqcGdeQXVyNjU0OTQ0OTY@._V1_SX300.jpg",
      "id": 1
    },
    {
      "Title": "Back to the Future",
      "Year": "1985",
      "imdbID": "tt0088763",
      "Type": "movie",
      "Poster": "https://m.media-amazon.com/images/M/MV5BZmU0M2Y1OGUtZjIxNi00ZjBkLTg1MjgtOWIyNThiZWIwYjRiXkEyXkFqcGdeQXVyMTQxNzMzNDI@._V1_SX300.jpg",
      "id": 2
    },
    {
      "Title": "Back to the Future Part II",
      "Year": "1989",
      "imdbID": "tt0096874",
      "Type": "movie",
      "Poster": "https://m.media-amazon.com/images/M/MV5BZTMxMGM5MjItNDJhNy00MWI2LWJlZWMtOWFhMjI5ZTQwMWM3XkEyXkFqcGdeQXVyMTQxNzMzNDI@._V1_SX300.jpg",
      "id": 3
    }
  ],
  "seenMovies": [
    {
      "Title": "Kung Fu Panda 2",
      "Year": "2011",
      "imdbID": "tt1302011",
      "Type": "movie",
      "Poster": "https://m.media-amazon.com/images/M/MV5BYzQ0ZWIxZjAtYWI3Yy00MGM0LWFjOGYtNzcyYThiOTA3ODI1XkEyXkFqcGdeQXVyODE5NzE3OTE@._V1_SX300.jpg",
      "id": 1
    }
  ]
}